BU.223.050B+0.0
ED.334.800F/4.5
EN.600.120B+3.5
PY.133.732U/2.5
AS.100.120A-3.0
SA.424.861D-5.0
SA.313.021C+5.0
EN.420.360D/4.0
ME.579.124I/0.5
PH.666.052C/1.0
SA.999.001C-5.0
EN.777.120B+3.5
EN.863.431B/1.5
AS.810.333A/2.0
