commit a5d878f4395a38d273a567b697f34997484825b0
Merge: 5bf39d6 8a590ba
Author: Jack Ye <jackye315@gmail.com>
Date:   Tue Feb 23 22:02:25 2016 -0500

    test

commit 5bf39d6cf075cb0d15071acaa4e756b474557c54
Author: Jack Ye <jackye315@gmail.com>
Date:   Tue Feb 23 22:00:15 2016 -0500

    hw2test

commit 8a590ba5840a49ac72e61b55b8098bee0b2c7a27
Author: Jack Ye <JackYe@Jacks-MacBook-Pro.local>
Date:   Tue Feb 23 21:56:34 2016 -0500

    added test file

commit 6885806036cf55c8435c1a12be2d5c2cdedbe3dc
Author: Jack Ye <JackYe@Jacks-MacBook-Pro.local>
Date:   Tue Feb 23 14:19:35 2016 -0500

    HW2test

commit 8206360ca60ffa9794b995194f59ced414d275d3
Author: Jack Ye <jackye315@gmail.com>
Date:   Tue Feb 23 14:13:53 2016 -0500

    added makefile

commit 1ba0e07c092a174c5c9f8a4cee21aa26d39c195a
Author: Jack Ye <JackYe@Jacks-MacBook-Pro.local>
Date:   Tue Feb 23 03:39:46 2016 -0500

    put test in folder

commit ab0ccf07c200f56dc298c7caf642b3fb2ecb6503
Author: Jack Ye <JackYe@Jacks-MacBook-Pro.local>
Date:   Tue Feb 23 03:37:30 2016 -0500

    made test folder

commit 7f1efe3574424e68540018df128ca4b58504c4d8
Author: Jack Ye <JackYe@Jacks-MacBook-Pro.local>
Date:   Tue Feb 23 03:27:16 2016 -0500

    fixed txt input

commit 7a1f86479b6205ec9c25c9741c0aff444545eeb0
Author: Jack Ye <JackYe@Jacks-MacBook-Pro.local>
Date:   Tue Feb 23 01:59:15 2016 -0500

    added no match found

commit b86676283d9408d6057a9bc2ba8c823ba90c9d13
Author: Jack Ye <JackYe@Jacks-MacBook-Pro.local>
Date:   Tue Feb 23 01:28:26 2016 -0500

    made .h and function files

commit c2e744ab45ab6c91d106c9e26c7db61726247d1e
Author: Jack Ye <JackYe@Jacks-MacBook-Pro.local>
Date:   Tue Feb 23 01:20:12 2016 -0500

    separated into functs

commit 03b18b4da2881604e7a20d304fccdfaff1608168
Author: Jack Ye <JackYe@Jacks-MacBook-Pro.local>
Date:   Sat Feb 20 19:29:20 2016 -0500

    fixed negative issue

commit de8d68dd40e970cc9b0230589aa1bbbd23c2d073
Author: Jack Ye <JackYe@Jacks-MacBook-Pro.local>
Date:   Sat Feb 20 18:20:19 2016 -0500

    compare p with txt

commit ccb00f2fcbf6f698374b441f70a46dbf753abfc2
Author: Jack Ye <JackYe@Jacks-MacBook-Pro.local>
Date:   Sat Feb 20 17:39:46 2016 -0500

    txt to array

commit 28abf6fb14f99faa662393a4dcf027424496d7e5
Author: Jack Ye <JackYe@Jacks-MacBook-Pro.local>
Date:   Sat Feb 20 17:33:58 2016 -0500

    deleted HW2

commit 57f4f05578c89045797c83e5aa4125548a7fa527
Author: Jack Ye <JackYe@Jacks-MacBook-Pro.local>
Date:   Sat Feb 20 17:28:57 2016 -0500

    test

commit 9ce6a00562d2b8750de6e4a2e626f910cb55a7bd
Author: Jack Ye <JackYe@Jacks-MacBook-Pro.local>
Date:   Sat Feb 20 17:24:43 2016 -0500

    txt to array

commit 7b2a259c2b6b7c115f1d17f4e153581544ac150d
Author: Jack Ye <JackYe@Jacks-MacBook-Pro.local>
Date:   Sat Feb 20 17:11:57 2016 -0500

    read text into array

commit e42e99ba9e8dc7ff022b3fc5b993c3debd664d69
Author: Jack Ye <JackYe@Jacks-MacBook-Pro.local>
Date:   Tue Feb 16 00:12:46 2016 -0500

    Updated readme

commit bb0d4b6fe925c548fea79b02c50b73bd35d24d74
Author: Jack Ye <jackye315@gmail.com>
Date:   Tue Feb 16 05:11:07 2016 +0000

    README.md edited online with Bitbucket

commit 96a6a06fa016223b4cb0c0d353bcdecb026eba18
Author: Jack Ye <JackYe@Jacks-MacBook-Pro.local>
Date:   Tue Feb 9 13:21:06 2016 -0500

    eclipse stuff

commit 3ce8bb6ecff1a1375b74eb03caff35c718b91484
Author: Jack Ye <JackYe@Jacks-MacBook-Pro.local>
Date:   Tue Feb 9 13:19:47 2016 -0500

    Initial commit with contributors
