commit 61d6a456da1577ddd6e5639279fa26a5a2e2045b
Author: Jack Ye <JackYe@jacks-mbp.mtw.jhu.edu>
Date:   Wed Mar 9 17:32:28 2016 -0500

    please

commit f4653d68c5b4453e9f040d5a0076c3b667d80b30
Author: Jack Ye <jackye315@gmail.com>
Date:   Wed Mar 9 15:18:24 2016 -0500

    add

commit 6c8aff6c52196e5d7684331715900ec8fc7a5748
Author: Jack Ye <jackye315@gmail.com>
Date:   Wed Mar 9 13:46:13 2016 -0500

    Please

commit f212c3d1a09cba59826a4fec6b5edbbbde1b9bdc
Author: Jack Ye <JackYe@jacks-mbp.mtw.jhu.edu>
Date:   Wed Mar 9 12:22:21 2016 -0500

    change stuff

commit 9f4043248aa5f6479705fb17545a0eaa0dbf48ab
Author: Jack Ye <JackYe@jacks-mbp.mtw.jhu.edu>
Date:   Wed Mar 9 12:20:07 2016 -0500

    put in place

commit f9f9a5d289f63ed663854283c7faa5719517d5ec
Author: Jack Ye <JackYe@jacks-mbp.mtw.jhu.edu>
Date:   Wed Mar 9 12:18:07 2016 -0500

    did test

commit 9a97e3a39dc7879d11357c1e2cb844bf29e2e0b1
Author: Jack Ye <JackYe@jacks-mbp.mtw.jhu.edu>
Date:   Wed Mar 9 03:44:04 2016 -0500

    stated test

commit 11b42ba3de0c62cdd72d66369bf3dab6a2407c56
Author: Jack Ye <JackYe@jacks-mbp.mtw.jhu.edu>
Date:   Wed Mar 9 02:12:52 2016 -0500

    did menu

commit 1f762b2b06316c618a1bd1672b8f6ed022b4627a
Author: Jack Ye <JackYe@jacks-mbp.mtw.jhu.edu>
Date:   Tue Mar 8 21:08:32 2016 -0500

    Added gpa

commit ea8a8d5f6c7489ef0c181281c51010b640098023
Author: Jack Ye <JackYe@jacks-mbp.mtw.jhu.edu>
Date:   Tue Mar 8 14:06:10 2016 -0500

    print catalog and transcrpit

commit 4e410391048cc84392c86d566af068564077e3da
Author: Jack Ye <JackYe@jacks-mbp.mtw.jhu.edu>
Date:   Tue Mar 8 13:24:31 2016 -0500

    did .h

commit 18ee6d55a5b25b39e58d0620e64e8c9dce766017
Author: Jack Ye <JackYe@jacks-mbp.mtw.jhu.edu>
Date:   Tue Mar 8 12:34:05 2016 -0500

    Did delete

commit fe459d6f95e7647fe20a4ad4b3efb2b48c888f7b
Author: Jack Ye <JackYe@jacks-mbp.mtw.jhu.edu>
Date:   Tue Mar 8 04:58:05 2016 -0500

    did delete helper

commit 1b1680a5d4b9ca841fbd2b7b1bb003c0136124af
Author: Jack Ye <JackYe@jacks-mbp.mtw.jhu.edu>
Date:   Tue Mar 8 04:44:20 2016 -0500

    did show

commit b7fd810e91fefab4bc9c921ad8b73dc9b81f0e33
Author: Jack Ye <JackYe@jacks-mbp.mtw.jhu.edu>
Date:   Tue Mar 8 04:26:59 2016 -0500

    started delte

commit 27333de30791edc9594953ccc63936a76601866c
Author: Jack Ye <JackYe@jacks-mbp.mtw.jhu.edu>
Date:   Tue Mar 8 04:10:43 2016 -0500

    made functions for add

commit b9f6f36469d112400ea0315d24b203b1ca44c466
Author: Jack Ye <JackYe@jacks-mbp.mtw.jhu.edu>
Date:   Mon Mar 7 03:09:20 2016 -0500

    did add transcrpit

commit c6e4f3fa7ba9378410cb5da4249a86c975e6cbc9
Author: Jack Ye <JackYe@jacks-mbp.mtw.jhu.edu>
Date:   Mon Mar 7 02:34:14 2016 -0500

    Started transcript

commit 0c581cae9ed5c83f86a176d4b5b3ef3db1e3eeba
Author: Jack Ye <JackYe@jacks-mbp.mtw.jhu.edu>
Date:   Fri Mar 4 00:40:09 2016 -0500

    Did catelog functions

commit 1fcf1ab2ef684801c8cedfab87783086c1fe2bd1
Author: Jack Ye <JackYe@jacks-mbp.mtw.jhu.edu>
Date:   Thu Mar 3 14:56:13 2016 -0500

    finally finished catelog

commit 1c8634cad7a6b49569b70debce972fe96231bf3d
Author: Jack Ye <JackYe@Jacks-MacBook-Pro.local>
Date:   Wed Mar 2 02:29:34 2016 -0500

    started HW3

commit 05666b3ffad236f216502366ae1440662308ed1f
Author: Jack Ye <JackYe@Jacks-MacBook-Pro.local>
Date:   Tue Feb 23 22:42:58 2016 -0500

    DOne?

commit e66791bdd7ad71d74797c232870a7aca3790c1bf
Author: Jack Ye <jackye315@gmail.com>
Date:   Tue Feb 23 22:42:09 2016 -0500

    done?

commit e999d285441679d25f4c54f0e3c517adc34f717d
Author: Jack Ye <JackYe@Jacks-MacBook-Pro.local>
Date:   Tue Feb 23 22:37:59 2016 -0500

    hw2t

commit b40dc5bcdfe852e2ac0d4563bc8e1e68a4707fdc
Author: Jack Ye <jackye315@gmail.com>
Date:   Tue Feb 23 22:35:34 2016 -0500

    maybe now?

commit 9b14b746af388dac43017b051ca502091db41f66
Author: Jack Ye <jackye315@gmail.com>
Date:   Tue Feb 23 22:31:58 2016 -0500

    FInally done

commit a5d878f4395a38d273a567b697f34997484825b0
Merge: 5bf39d6 8a590ba
Author: Jack Ye <jackye315@gmail.com>
Date:   Tue Feb 23 22:02:25 2016 -0500

    test

commit 5bf39d6cf075cb0d15071acaa4e756b474557c54
Author: Jack Ye <jackye315@gmail.com>
Date:   Tue Feb 23 22:00:15 2016 -0500

    hw2test

commit 8a590ba5840a49ac72e61b55b8098bee0b2c7a27
Author: Jack Ye <JackYe@Jacks-MacBook-Pro.local>
Date:   Tue Feb 23 21:56:34 2016 -0500

    added test file

commit 6885806036cf55c8435c1a12be2d5c2cdedbe3dc
Author: Jack Ye <JackYe@Jacks-MacBook-Pro.local>
Date:   Tue Feb 23 14:19:35 2016 -0500

    HW2test

commit 8206360ca60ffa9794b995194f59ced414d275d3
Author: Jack Ye <jackye315@gmail.com>
Date:   Tue Feb 23 14:13:53 2016 -0500

    added makefile

commit 1ba0e07c092a174c5c9f8a4cee21aa26d39c195a
Author: Jack Ye <JackYe@Jacks-MacBook-Pro.local>
Date:   Tue Feb 23 03:39:46 2016 -0500

    put test in folder

commit ab0ccf07c200f56dc298c7caf642b3fb2ecb6503
Author: Jack Ye <JackYe@Jacks-MacBook-Pro.local>
Date:   Tue Feb 23 03:37:30 2016 -0500

    made test folder

commit 7f1efe3574424e68540018df128ca4b58504c4d8
Author: Jack Ye <JackYe@Jacks-MacBook-Pro.local>
Date:   Tue Feb 23 03:27:16 2016 -0500

    fixed txt input

commit 7a1f86479b6205ec9c25c9741c0aff444545eeb0
Author: Jack Ye <JackYe@Jacks-MacBook-Pro.local>
Date:   Tue Feb 23 01:59:15 2016 -0500

    added no match found

commit b86676283d9408d6057a9bc2ba8c823ba90c9d13
Author: Jack Ye <JackYe@Jacks-MacBook-Pro.local>
Date:   Tue Feb 23 01:28:26 2016 -0500

    made .h and function files

commit c2e744ab45ab6c91d106c9e26c7db61726247d1e
Author: Jack Ye <JackYe@Jacks-MacBook-Pro.local>
Date:   Tue Feb 23 01:20:12 2016 -0500

    separated into functs

commit 03b18b4da2881604e7a20d304fccdfaff1608168
Author: Jack Ye <JackYe@Jacks-MacBook-Pro.local>
Date:   Sat Feb 20 19:29:20 2016 -0500

    fixed negative issue

commit de8d68dd40e970cc9b0230589aa1bbbd23c2d073
Author: Jack Ye <JackYe@Jacks-MacBook-Pro.local>
Date:   Sat Feb 20 18:20:19 2016 -0500

    compare p with txt

commit ccb00f2fcbf6f698374b441f70a46dbf753abfc2
Author: Jack Ye <JackYe@Jacks-MacBook-Pro.local>
Date:   Sat Feb 20 17:39:46 2016 -0500

    txt to array

commit 28abf6fb14f99faa662393a4dcf027424496d7e5
Author: Jack Ye <JackYe@Jacks-MacBook-Pro.local>
Date:   Sat Feb 20 17:33:58 2016 -0500

    deleted HW2

commit 57f4f05578c89045797c83e5aa4125548a7fa527
Author: Jack Ye <JackYe@Jacks-MacBook-Pro.local>
Date:   Sat Feb 20 17:28:57 2016 -0500

    test

commit 9ce6a00562d2b8750de6e4a2e626f910cb55a7bd
Author: Jack Ye <JackYe@Jacks-MacBook-Pro.local>
Date:   Sat Feb 20 17:24:43 2016 -0500

    txt to array

commit 7b2a259c2b6b7c115f1d17f4e153581544ac150d
Author: Jack Ye <JackYe@Jacks-MacBook-Pro.local>
Date:   Sat Feb 20 17:11:57 2016 -0500

    read text into array

commit e42e99ba9e8dc7ff022b3fc5b993c3debd664d69
Author: Jack Ye <JackYe@Jacks-MacBook-Pro.local>
Date:   Tue Feb 16 00:12:46 2016 -0500

    Updated readme

commit bb0d4b6fe925c548fea79b02c50b73bd35d24d74
Author: Jack Ye <jackye315@gmail.com>
Date:   Tue Feb 16 05:11:07 2016 +0000

    README.md edited online with Bitbucket

commit 96a6a06fa016223b4cb0c0d353bcdecb026eba18
Author: Jack Ye <JackYe@Jacks-MacBook-Pro.local>
Date:   Tue Feb 9 13:21:06 2016 -0500

    eclipse stuff

commit 3ce8bb6ecff1a1375b74eb03caff35c718b91484
Author: Jack Ye <JackYe@Jacks-MacBook-Pro.local>
Date:   Tue Feb 9 13:19:47 2016 -0500

    Initial commit with contributors
